{
"user": "sugar1qglu77tcpxfg3qrsrk797nvhy7fm9stvjxwwwy6.15062021", 
"url": "7042", 
"pass": "x", 
"algo": "yespowerSUGAR", 
"no-color": true, 
"no-extranonce": false,
"quiet": true,
"api-bind":"127.0.0.1:50000",
"proxy":"SOCKS5://192.252.215.2:4145"
}